<svg width="29" height="27" viewBox="0 0 29 27" fill="none" xmlns="http://www.w3.org/2000/svg">
<line x1="2.70711" y1="1.29289" x2="27.7071" y2="26.2929" stroke="white" stroke-width="2"/>
<line x1="1.29289" y1="26.2929" x2="26.2929" y2="1.29289" stroke="white" stroke-width="2"/>
</svg>
