<svg width="58" height="58" viewBox="0 0 58 58" fill="none" xmlns="http://www.w3.org/2000/svg">
<g clip-path="url(#clip0)">
<path d="M51.9533 28.9905L57.1625 23.8923C58.7154 22.4222 57.9913 19.8097 55.9545 19.3226L48.8574 17.5113L50.8581 10.4861C51.4235 8.46541 49.5181 6.55945 47.498 7.12495L40.4753 9.12629L38.6646 2.02684C38.1854 0.0218785 35.5437 -0.711391 34.0965 0.818359L29 6.06804L23.9036 0.818472C22.4728 -0.693946 19.8201 -0.00100446 19.3355 2.02696L17.5248 9.12641L10.502 7.12507C8.48136 6.55934 6.57665 8.46598 7.14193 10.4862L9.14259 17.5114L2.04552 19.3227C0.00781254 19.81 -0.714808 22.4229 0.837371 23.8923L6.04661 28.9905L0.837371 34.0886C-0.715488 35.5587 0.00860573 38.1712 2.0454 38.6583L9.14247 40.4696L7.14181 47.4948C6.57643 49.5155 8.48182 51.4214 10.5018 50.8559L17.5246 48.8546L19.3353 55.954C19.8382 58.0582 22.4727 58.6748 23.9034 57.1625L29 51.9515L34.0964 57.1625C35.5124 58.6905 38.1731 58.0106 38.6645 55.954L40.4752 48.8546L47.4979 50.8559C49.5184 51.4217 51.4232 49.515 50.858 47.4948L48.8573 40.4696L55.9544 38.6583C57.992 38.1709 58.7146 35.5581 57.1624 34.0886L51.9533 28.9905Z" fill="#F07D00"/>
</g>
<defs>
<clipPath id="clip0">
<rect width="58" height="58" fill="white"/>
</clipPath>
</defs>
</svg>
